    /*public function __construct($id, $name, $price, $currency, $quantity, $description, $picture, $producent, $category, $weight)
    {
       $this->id = $id;
       $this->name = $name;
       $this->price = $price;
       $this->currency = $currency;
       $this->quantity = $quantity;
       $this->description = $description;
       $this->picture = $picture;
       $this->producent = $producent;
       $this->category = $category;
       $this->weight = $weight;

    } */  

    cezary dziekonski